1 10 20
100 200 125
201 210 89
900 1000 174
982 520 179
665 147 145
875 219 179
804 147 171
996 117 179
440 434 116
379 96 144
292 37 128
379 214 144
9 9 20
1345 1345 115
645 645 101
1 1 1
2 2 2
566410 928510 525
125056 250111 443
497831 995660 525
373368 746734 509
205491 410980 449
152656 305310 443
321265 642528 509
919794 983240 507
602370 956220 525
258081 516160 470
26460 52919 340
393122 786242 509
222314 444627 449
112974 225947 386
783300 841587 525
233298 466595 449
466140 80212 449
250155 938558 525
651007 774034 504
293578 591664 470
25733 667305 509
736147 860946 525
763639 200589 509
541249 41394 470
586294 435039 470
832335 100351 509
782721 703022 504
65396 886468 525
292229 841304 525
162826 229235 386
121872 418302 449
574591 116297 470
193859 553983 470
511316 809400 509
959178 334317 525
966676 209287 525
320014 343140 384
749794 430409 509
136966 450164 449
409047 844328 525
527704 587844 452
385151 31543 443
555924 198597 470
14302 13942 196
309976 757533 509
577723 845905 525
350751 261532 441
119011 785856 509
943698 874153 507
330996 904820 525
544944 705880 509
917553 744110 525
565117 169880 470
367177 555338 470
89782 294259 443
464949 478460 413
497214 179377 449
473788 846413 525
95086 162426 383
562888 455388 470
932974 333689 525
552818 344977 470
485058 315570 449
777257 184363 509
238597 745251 509
266165 385638 441
556407 796565 509
281555 655760 509
24746 445595 449
303239 139599 443
397529 535786 470
59447 100943 351
59834 458765 449
980949 780423 525
682323 444055 509
35962 844134 525
709062 963991 525
711058 794120 468
4762 710576 509
465112 381098 449
970798 898928 507
262859 477687 449
83190 753825 509
672188 121035 509
456569 953486 525
718353 892719 525
474565 884507 525
242151 925418 525
150421 991243 525
342164 97917 443
554489 582008 421
765660 959058 525
289198 80964 443
124960 879507 525
760719 126635 509
998418 658384 525
742588 126001 509
948955 611441 525
635945 333088 509
86556 537128 470
923842 369505 525
688577 141836 509
848817 21688 525
654104 362932 509
358757 186402 443
789760 116735 509
248207 750534 509
983124 109132 525
957962 320728 525
240713 228422 443
494993 450927 444
753930 654812 504
888173 434334 525
387256 831071 509
785011 714434 468
13007 957695 525
200676 701042 509
732038 491713 509
713135 426095 509
186100 853951 525
721363 226945 509
148816 988810 525
296793 960365 525
169935 946991 525
429626 149362 449
172503 451624 449
10754 522247 470
962178 399573 525
330416 524503 470
220242 973469 525
849297 469605 525
530721 195963 470
136675 672228 509
661419 580023 509
586418 425657 470
449282 137845 449
667729 54796 509
435407 955758 525
955543 615518 525
140352 927956 525
403974 807122 509
964820 580913 525
733178 459834 509
485170 111355 449
910406 592215 525
866486 342586 525
711826 371693 509
660085 245373 509
107089 224296 386
980179 622622 525
810981 766112 468
701188 227195 509
74732 171222 383
465732 715862 509
45938 302389 443
658871 655426 429
814063 341190 509
656178 333662 509
491710 742935 509
821004 692349 504
687656 773488 504
619595 331703 470
982345 934740 507
70635 937904 525
400973 57342 443
855219 647662 525
79913 705076 509
183011 202565 360
960500 298399 525
774937 55179 509
646091 154269 509
837397 855433 525
177123 588349 470
957592 290943 525
830751 5142 509
820367 217360 509
306005 630621 509
911442 963988 507
302197 709202 509
849221 265269 525
328258 599310 470
639183 751771 504
300372 20202 443
473641 458816 444
401220 599717 470
610104 289101 470
140494 205714 383
926567 356156 525
890359 481892 525
890419 781796 525
965163 520399 525
710934 250181 509
500489 765084 509
132435 510923 449
462392 325759 449
51310 139102 354
443178 83371 449
892192 280103 525
710316 796788 468
226340 589498 470
305007 184195 443
521178 896899 525
160134 223130 386
485302 179932 449
26410 263251 443
922709 144994 525
287132 449843 449
4597 105168 351
244095 955966 525
799348 615399 509
685558 647347 442
553979 450850 470
821830 498686 509
309977 532471 470
852001 728027 525
721458 519044 509
