1 10 20
100 200 125
201 210 89
900 1000 174
994572 913695 507
540701 815745 509
749058 968160 525
752619 985239 525
543 7656 262
686950 222804 509
829628 551096 509
713559 558405 509
680893 730641 504
3213 9586 262
709804 510847 509
151680 548925 470
57816 633405 509
814795 370738 509
109569 618192 470
940968 582916 525
88771 225902 386
813305 586972 509
374058 655304 509
46743 147496 375
43545 33 324
257565 83430 443
942744 765494 525
572657 871001 525
677607 612092 509
259174 144289 443
313048 500998 449
135170 467115 449
544250 602668 452
707882 293913 509
1 76574 340
178737 737373 509
462835 415520 444
121212 232323 443
232323 434343 449
95030 276643 443
3332 87543 351
287787 823622 509
235771 868163 525
259444 776050 509
314649 609145 470
380090 575407 470
627074 460624 509
348191 67928 443
323234 65 443
629205 847876 525
412719 446415 418
549246 307289 470
26277 546329 470
695555 342979 509
761260 762291 362
530442 934375 525
525 705 171
286460 224648 443
254653 24782 443
277980 312796 389
651776 195363 509
66 77777 351
635563 115582 509
168649 187802 365
535713 406807 470
333333 44444 443
256159 203289 443
889024 359217 525
613368 174772 470
128618 173092 383
279153 533507 470
64940 213566 383
678455 93176 509
176993 896437 525
931892 569352 525
714498 9915 509
78296 89412 338
551313 501614 470
364268 314397 441
887921 63983 525
345803 666145 509
491884 365481 449
32 87 116
105216 667336 509
514544 633633 509
810623 769589 468
470927 290021 449
927343 525533 525
32 90 116
677366 40335 509
531350 249771 470
60130 197450 383
695604 897849 525
284334 876899 525
317300 511279 449
210290 244877 443
981515 924324 507
451142 956638 525
105925 491126 449
801829 767942 468
366774 763726 509
91383 359880 443
812698 224243 509
387200 147761 443
476310 633388 509
719145 466777 509
110947 882670 525
1 1 1
403533 719087 509
965616 692852 525
644440 348824 509
583233 434918 470
900 800 179
906533 145246 525
946358 237788 525
44191 415322 449
1 3589 217
251267 531723 470
927879 13182 525
999999 999999 259
294023 933795 525
694316 904450 525
49711 91126 351
168952 21857 383
215182 999889 525
980008 70585 525
539805 76827 470
996534 968844 458
948201 11335 525
481170 751701 509
270578 528338 470
86328 810402 509
979329 877057 507
342552 824094 509
158880 891999 525
145824 857724 525
346847 141472 443
333 333 113
202017 504108 449
834512 469426 509
178219 495324 449
543 555 137
513107 803337 509
869502 524779 525
876966 788322 525
17826 986483 525
969041 148452 525
217382 733689 509
197541 563061 470
118280 311238 443
334331 885822 525
48104 740425 509
696473 379779 509
333182 136975 443
974140 561307 525
8968 4768 262
298095 451475 449
475773 679351 509
519761 421001 470
568426 481273 470
963097 358934 525
714088 645874 504
99825 595399 470
133680 112651 349
698217 865161 525
60577 76298 335
537 611501 470
487513 912693 525
395332 98788 443
133513 502171 449
868199 127390 525
600501 27374 470
238240 625954 470
740975 257580 509
817320 33815 509
716145 922185 525
665407 180225 509
88187 23091 351
57575 317307 443
560800 839097 525
126977 70047 354
658972 934949 525
902916 329370 525
721880 703501 504
124295 533288 470
72147 841555 525
276103 356257 441
120109 688219 509
4356 9900 262
463590 539246 470
71930 633886 509
751616 891573 525
358745 941719 525
194804 69421 383
992448 202416 525
125652 836567 509
681457 600437 509
938719 409034 525
717449 245003 509
73688 748207 509
80361 410794 449
443553 136498 449
523492 805301 509
5433 6543 262
474113 90998 449
525478 905009 525
714766 28196 509
739491 898566 525
846688 898423 445
90902 805353 509
479061 318334 449
478534 377708 449
936510 160602 525
239119 950192 525
32123 60972 340
364644 118435 443
114360 909552 525
746140 861891 525
163692 799665 509
432 786 171
188348 138974 383
480457 495898 426
548488 15346 470
429678 672256 509
124243 453828 449
551539 981715 525
435429 901301 525
665216 651660 442
919404 131858 525
241836 413494 449
578374 778601 509
600254 701962 509
2 2 2
23075 272277 443
521650 46499 470
918778 718590 525
77 77 23
207619 311933 443
603674 812326 509
566919 166575 470
390530 992920 525
35693 990799 525
291921 595444 470
749001 581439 509
435010 218083 449
249220 781072 509
712538 749735 424
904387 832597 525
664783 235532 509
453097 937983 525
3222 5443 238
590861 356307 470
246084 180261 443
814652 560769 509
245276 731269 509
450356 815180 509
311491 965190 525
902076 27499 525
410193 942031 525
682799 891317 525
5432 8899 262
712626 135760 509
147294 978483 525
703851 170069 509
870 872 179
191353 531253 470
562437 471759 470
912332 321461 525
111233 803839 509
101 7111 262
529059 106206 470
743104 36337 509
532578 217639 470
874967 500442 525
752146 118735 509
431197 424211 374
873053 786793 525
10739 884715 525
933104 672987 525
162960 829899 509
641174 106168 509
460200 862382 525
148799 2845 375
540020 275932 470
180447 494345 449
411985 67404 449
888 43223 324
531819 987800 525
441450 577784 470
4344 5555 215
798861 928887 525
342528 709057 509
4324 9484 262
477885 233062 449
689668 47175 509
868104 763296 525
849915 721112 525
890039 165848 525
2832 4947 238